<?xml version="1.0" encoding="UTF-8"?>
<!-- Generator: Adobe Illustrator 23.0.1, SVG Export Plug-In . SVG Version: 6.00 Build 0)  -->
<svg version="1.1" id="Layer_1" xmlns="http://www.w3.org/2000/svg" xmlns:xlink="http://www.w3.org/1999/xlink" x="0px" y="0px" viewBox="0 0 64 64" style="enable-background:new 0 0 64 64;" xml:space="preserve">
<style type="text/css">
	.st0{fill:url(#SVGID_1_);}
</style>
<linearGradient id="SVGID_1_" gradientUnits="userSpaceOnUse" x1="11.5199" y1="43.7178" x2="52.4813" y2="2.7564">
	<stop offset="0.0711" style="stop-color:#F15A29"/>
	<stop offset="0.1759" style="stop-color:#EE4D2C"/>
	<stop offset="0.3772" style="stop-color:#EB362F"/>
	<stop offset="0.5761" style="stop-color:#E92431"/>
	<stop offset="0.7685" style="stop-color:#E81C32"/>
</linearGradient>
<path class="st0" d="M63.33,21.33c0-1.64-1.09-16.83-15.6-16.83C33.23,4.5,32,15.72,32,15.72c0,0-1.23-11.22-15.73-11.22  c-14.5,0-15.6,15.19-15.6,16.83C0.67,38.16,21.19,53.48,32,59.5C42.81,53.48,63.33,38.16,63.33,21.33"/>
</svg>