<?xml version="1.0" encoding="UTF-8" standalone="no"?>
<svg
   xmlns:dc="http://purl.org/dc/elements/1.1/"
   xmlns:cc="http://creativecommons.org/ns#"
   xmlns:rdf="http://www.w3.org/1999/02/22-rdf-syntax-ns#"
   xmlns:svg="http://www.w3.org/2000/svg"
   xmlns="http://www.w3.org/2000/svg"
   xmlns:sodipodi="http://sodipodi.sourceforge.net/DTD/sodipodi-0.dtd"
   xmlns:inkscape="http://www.inkscape.org/namespaces/inkscape"
   width="20.901903mm"
   height="31.645481mm"
   viewBox="0 0 20.901903 31.645481"
   version="1.1"
   id="svg8"
   inkscape:version="1.0 (4035a4fb49, 2020-05-01)"
   sodipodi:docname="interrog.svg">
  <defs
     id="defs2" />
  <sodipodi:namedview
     id="base"
     pagecolor="#ffffff"
     bordercolor="#666666"
     borderopacity="1.0"
     inkscape:pageopacity="0.0"
     inkscape:pageshadow="2"
     inkscape:zoom="5.4089412"
     inkscape:cx="65.110856"
     inkscape:cy="36.749416"
     inkscape:document-units="mm"
     inkscape:current-layer="layer1"
     inkscape:document-rotation="0"
     showgrid="false"
     inkscape:window-width="1920"
     inkscape:window-height="1001"
     inkscape:window-x="-9"
     inkscape:window-y="-9"
     inkscape:window-maximized="1" />
  <metadata
     id="metadata5">
    <rdf:RDF>
      <cc:Work
         rdf:about="">
        <dc:format>image/svg+xml</dc:format>
        <dc:type
           rdf:resource="http://purl.org/dc/dcmitype/StillImage" />
        <dc:title />
      </cc:Work>
    </rdf:RDF>
  </metadata>
  <g
     inkscape:label="Calque 1"
     inkscape:groupmode="layer"
     id="layer1"
     transform="translate(-57.572017,-65.307064)">
    <g
       style="font-style:normal;font-variant:normal;font-weight:normal;font-stretch:normal;font-size:42.8071px;line-height:1.25;font-family:'Arial Rounded MT Bold';-inkscape-font-specification:'Arial Rounded MT Bold, Normal';font-variant-ligatures:normal;font-variant-caps:normal;font-variant-numeric:normal;font-variant-east-asian:normal;fill:#ffffff;fill-opacity:1;stroke:none;stroke-width:1.07018"
       id="text835"
       aria-label="?">
      <path
         id="path9"
         style="font-style:normal;font-variant:normal;font-weight:normal;font-stretch:normal;font-size:42.8071px;font-family:'Arial Rounded MT Bold';-inkscape-font-specification:'Arial Rounded MT Bold, Normal';font-variant-ligatures:normal;font-variant-caps:normal;font-variant-numeric:normal;font-variant-east-asian:normal;fill:#ffffff;stroke-width:1.07018"
         d="m 57.572017,74.044059 q 0,-1.985681 1.275016,-4.013165 1.275016,-2.048387 3.720539,-3.386109 2.445522,-1.337721 5.706219,-1.337721 3.030776,0 5.350888,1.128702 2.320111,1.107801 3.574225,3.030776 1.275016,1.922976 1.275016,4.180381 0,1.776662 -0.731566,3.114384 -0.710665,1.337722 -1.713956,2.320111 -0.98239,0.961488 -3.553324,3.260697 -0.710665,0.647959 -1.149605,1.149605 -0.418038,0.480743 -0.627057,0.898782 -0.209019,0.397136 -0.33443,0.815174 -0.10451,0.397136 -0.334431,1.421329 -0.397136,2.173798 -2.487326,2.173798 -1.086899,0 -1.839368,-0.710665 -0.731566,-0.710664 -0.731566,-2.111092 0,-1.75576 0.543449,-3.030776 0.54345,-1.295918 1.442231,-2.257405 0.898782,-0.98239 2.424621,-2.320112 1.337722,-1.170506 1.922975,-1.75576 0.606156,-0.606155 1.003292,-1.337721 0.418038,-0.731567 0.418038,-1.588545 0,-1.672152 -1.254114,-2.821757 -1.233213,-1.149605 -3.197992,-1.149605 -2.299209,0 -3.386108,1.170507 -1.086899,1.149605 -1.839367,3.40701 -0.710665,2.361915 -2.696346,2.361915 -1.170507,0 -1.985681,-0.815174 -0.794272,-0.836076 -0.794272,-1.797564 z m 10.200129,22.908487 q -1.275016,0 -2.236504,-0.815175 -0.940586,-0.836076 -0.940586,-2.320111 0,-1.31682 0.919684,-2.215602 0.919684,-0.898782 2.257406,-0.898782 1.31682,0 2.215601,0.898782 0.898782,0.898782 0.898782,2.215602 0,1.463133 -0.940585,2.299209 -0.940586,0.836077 -2.173798,0.836077 z" />
    </g>
  </g>
</svg>
